{
    "items": [{
        "id": 1,
        "img": "pubs/images/Layer-984.png",
        "title": "Word Trip",
        "subtitle": "Sed ut perspiciatis unde omnis iste natus error sit voluptatem accusantium doloremque laudantium, totam rem aperiam, eaque ipsa quae ab illo inventore veritatis et quasi architecto beatae vitae dicta sunt explicabo",
        "link": "creator-video-detail.html",
        "total": 8
    }, {
        "id": 2,
        "img": "pubs/images/Layer-977.png",
        "title": "Cooking: Healthy Food",
        "subtitle": "Sed ut perspiciatis unde omnis iste natus error sit voluptatem accusantium doloremque laudantium, totam rem aperiam, eaque ipsa quae ab illo inventore veritatis et quasi architecto beatae vitae dicta sunt explicabo",
        "link": "creator-video-detail.html",
        "total": 8
    }, {
        "id": 3,
        "img": "pubs/images/Layer-982.png",
        "title": "Healthy Junk Food",
        "subtitle": "Sed ut perspiciatis unde omnis iste natus error sit voluptatem accusantium doloremque laudantium, totam rem aperiam, eaque ipsa quae ab illo inventore veritatis et quasi architecto beatae vitae dicta sunt explicabo",
        "link": "creator-video-detail.html",
        "total": 8
    }, {
        "id": 4,
        "img": "pubs/images/Layer-978.png",
        "title": "Street Style",
        "subtitle": "Sed ut perspiciatis unde omnis iste natus error sit voluptatem accusantium doloremque laudantium, totam rem aperiam, eaque ipsa quae ab illo inventore veritatis et quasi architecto beatae vitae dicta sunt explicabo",
        "link": "creator-video-detail.html",
        "total": 8
    }],
    "next": "data/empty.json"
}